[gd_scene load_steps=6 format=2]

[ext_resource path="res://scenes/utils/LevelComponents.tscn" type="PackedScene" id=1]
[ext_resource path="res://shaders/world-1.shader" type="Shader" id=2]
[ext_resource path="res://scenes/agents/SimpleEnemyP.tscn" type="PackedScene" id=3]
[ext_resource path="res://scenes/agents/SimpleEnemyN.tscn" type="PackedScene" id=4]

[sub_resource type="ShaderMaterial" id=1]
shader = ExtResource( 2 )
shader_param/level = 2.0

[node name="root" type="Node2D"]

[node name="LevelComponents" parent="." instance=ExtResource( 1 )]

[node name="KeyR" parent="LevelComponents" index="0"]
visible = false
picked = true

[node name="KeyG" parent="LevelComponents" index="1"]
visible = false
picked = true

[node name="KeyB" parent="LevelComponents" index="2"]
visible = false
picked = true

[node name="Portal" parent="LevelComponents" index="3"]
position = Vector2( 3090, 0 )

[node name="ParallaxLayer" parent="LevelComponents/ParallaxBackground" index="0"]
visible = true

[node name="Sprite" parent="LevelComponents/ParallaxBackground/ParallaxLayer" index="0"]
material = SubResource( 1 )

[node name="TileMap" parent="LevelComponents" index="7"]
tile_data = PoolIntArray( -327658, 3, 0, -327657, 1, 0, -327656, 1, 0, -327655, 5, 0, -262122, 0, 0, -262119, 0, 0, -196586, 0, 0, -196583, 0, 0, -65539, 3, 0, -65538, 1, 0, -65537, 1, 0, -131072, 1, 0, -131071, 1, 0, -131070, 1, 0, -131069, 1, 0, -131068, 1, 0, -131067, 1, 0, -131066, 1, 0, -131065, 1, 0, -131064, 1, 0, -131063, 1, 0, -131062, 1, 0, -131061, 1, 0, -131060, 1, 0, -131059, 1, 0, -131058, 1, 0, -131057, 1, 0, -131056, 1, 0, -131055, 1, 0, -131054, 1, 0, -131053, 1, 0, -131052, 1, 0, -131051, 1, 0, -131050, 4, 0, -131047, 0, 0, -3, 1073741824, 0, -65511, 1073741824, 0, 65533, 1073741824, 0, 25, 1073741824, 0, 131069, 2, 0, 131070, 1, 0, 131071, 1, 0, 65536, 1, 0, 65537, 1, 0, 65538, 1, 0, 65539, 1, 0, 65540, 1, 0, 65541, 1, 0, 65542, 1, 0, 65543, 1, 0, 65544, 1, 0, 65545, 1, 0, 65546, 1, 0, 65547, 1, 0, 65548, 1, 0, 65549, 1, 0, 65550, 1, 0, 65551, 1, 0, 65552, 1, 0, 65553, 1, 0, 65554, 1, 0, 65555, 1, 0, 65556, 1, 0, 65557, 1, 0, 65558, 1, 0, 65559, 1, 0, 65560, 1, 0, 65561, 4, 0 )

[node name="GameController" parent="LevelComponents" index="8"]
next_scene = "res://scenes/world-1/level1-3.tscn"

[node name="ColorRect" parent="LevelComponents/GameController/Background" index="0"]
color = Color( 0.054902, 0, 0, 1 )

[node name="PimpleEnemyP" parent="." instance=ExtResource( 3 )]
position = Vector2( 830, 0 )

[node name="PimpleEnemyP3" parent="." instance=ExtResource( 3 )]
position = Vector2( 1510, -100 )

[node name="SimpleEnemyN" parent="." instance=ExtResource( 4 )]
position = Vector2( 2990, -340 )

[node name="SimpleEnemyN2" parent="." instance=ExtResource( 4 )]
position = Vector2( 3160, -340 )


[editable path="LevelComponents"]

[editable path="LevelComponents/Portal"]
