[gd_scene load_steps=4 format=2]

[ext_resource path="res://scenes/particles/particle-materials/repulsion-negative.tres" type="Material" id=1]
[ext_resource path="res://sprites/particles/particle2.png" type="Texture" id=2]
[ext_resource path="res://scripts/temp-particle.gd" type="Script" id=3]

[node name="Repulsion" type="Particles2D"]
emitting = false
amount = 10
lifetime = 0.3
one_shot = true
explosiveness = 0.8
randomness = 0.2
local_coords = false
process_material = ExtResource( 1 )
texture = ExtResource( 2 )
script = ExtResource( 3 )
