[gd_resource type="ParticlesMaterial" load_steps=7 format=2]

[sub_resource type="Gradient" id=1]
offsets = PoolRealArray( 0, 0.350318, 1 )
colors = PoolColorArray( 0.556863, 0.129412, 0.796078, 1, 1, 1, 1, 0.87451, 1, 1, 1, 0.411765 )

[sub_resource type="GradientTexture" id=2]
gradient = SubResource( 1 )

[sub_resource type="Curve" id=3]
min_value = -200.0
max_value = 500.0
_data = [ Vector2( 0, 500 ), 0.0, 0.0, 0, 0, Vector2( 0.201557, 500 ), -2712.95, -2712.95, 0, 0, Vector2( 0.99308, 49.13 ), 885.308, 0.0, 0, 0 ]

[sub_resource type="CurveTexture" id=4]
curve = SubResource( 3 )

[sub_resource type="Curve" id=5]
max_value = 0.5
_data = [ Vector2( 0, 0.5 ), 0.0, 0.0, 0, 0, Vector2( 1, 0.14 ), 0.0, 0.0, 0, 0 ]

[sub_resource type="CurveTexture" id=6]
curve = SubResource( 5 )

[resource]
emission_shape = 1
emission_sphere_radius = 50.0
flag_align_y = true
flag_disable_z = true
spread = 180.0
gravity = Vector3( 0, 0, 0 )
initial_velocity = 500.0
angular_velocity = 1.05
orbit_velocity = 0.0
orbit_velocity_random = 0.0
radial_accel = 100.0
radial_accel_curve = SubResource( 4 )
scale_curve = SubResource( 6 )
color_ramp = SubResource( 2 )

