[gd_resource type="ParticlesMaterial" load_steps=3 format=2]

[sub_resource type="Gradient" id=1]
colors = PoolColorArray( 1, 1, 1, 0.54902, 1, 1, 1, 0 )

[sub_resource type="GradientTexture" id=2]
gradient = SubResource( 1 )

[resource]
flag_disable_z = true
gravity = Vector3( 0, 0, 0 )
angular_velocity = 1.49184e-019
orbit_velocity = 0.0
orbit_velocity_random = 0.0
color_ramp = SubResource( 2 )

