[gd_scene load_steps=13 format=2]

[ext_resource path="res://scenes/utils/LevelComponents.tscn" type="PackedScene" id=1]
[ext_resource path="res://shaders/world-4.shader" type="Shader" id=2]
[ext_resource path="res://scenes/agents/UnstopableEnemyP.tscn" type="PackedScene" id=3]
[ext_resource path="res://scenes/agents/BlackholeEnemyN.tscn" type="PackedScene" id=4]
[ext_resource path="res://scenes/agents/StrongEnemyN.tscn" type="PackedScene" id=5]
[ext_resource path="res://scenes/agents/StrongEnemyP.tscn" type="PackedScene" id=6]
[ext_resource path="res://scenes/agents/BlockEnemyN.tscn" type="PackedScene" id=7]
[ext_resource path="res://scenes/agents/UnstopableEnemyN.tscn" type="PackedScene" id=8]
[ext_resource path="res://scenes/agents/SimpleEnemyN.tscn" type="PackedScene" id=9]
[ext_resource path="res://scenes/agents/SimpleEnemyP.tscn" type="PackedScene" id=10]
[ext_resource path="res://scenes/agents/BlackholeEnemyP.tscn" type="PackedScene" id=11]

[sub_resource type="ShaderMaterial" id=1]
shader = ExtResource( 2 )
shader_param/level = 9

[node name="root" type="Node2D"]

[node name="LevelComponents" parent="." instance=ExtResource( 1 )]

[node name="KeyR" parent="LevelComponents" index="0"]
position = Vector2( 350, 2750 )

[node name="KeyG" parent="LevelComponents" index="1"]
position = Vector2( 1300, -140 )

[node name="KeyB" parent="LevelComponents" index="2"]
position = Vector2( -430, 880 )

[node name="Portal" parent="LevelComponents" index="3"]
position = Vector2( 1820, 1570 )

[node name="ParallaxBackground" parent="LevelComponents" index="6"]
editor/display_folded = false

[node name="Sprite" parent="LevelComponents/ParallaxBackground/ParallaxLayer" index="0"]
material = SubResource( 1 )

[node name="TileMap" parent="LevelComponents" index="7"]
tile_data = PoolIntArray( -196603, 6, 0, -196602, 1, 0, -196601, 1, 0, -196600, 1, 0, -196599, 1, 0, -196598, 1, 0, -196597, 5, 0, -65538, 3, 0, -65537, 1, 0, -131072, 1, 0, -131071, 5, 0, -131068, 6, 0, -131067, 9, 0, -131061, 0, 0, -2, 0, 0, -65535, 0, 0, -65533, 6, 0, -65532, 9, 0, -65525, 0, 0, 65534, 0, 0, 1, 0, 0, 2, 6, 0, 3, 9, 0, 8, 6, 0, 9, 1, 0, 10, 1, 0, 11, 4, 0, 131070, 0, 0, 65537, 2, 0, 65538, 9, 0, 65543, 6, 0, 65544, 9, 0, 196606, 8, 0, 196607, 7, 0, 131078, 6, 0, 131079, 9, 0, 262143, 8, 0, 196608, 7, 0, 196614, 8, 0, 196615, 7, 0, 262144, 8, 0, 262145, 7, 0, 262151, 8, 0, 262152, 7, 0, 393210, 3, 0, 393211, 1, 0, 393212, 1, 0, 393213, 1, 0, 393214, 5, 0, 327681, 0, 0, 327688, 8, 0, 327689, 1, 0, 327690, 1, 0, 327691, 1, 0, 327692, 1, 0, 327693, 7, 0, 458746, 0, 0, 458750, 0, 0, 393217, 0, 0, 393229, 8, 0, 393230, 7, 0, 524282, 8, 0, 524283, 7, 0, 524286, 8, 0, 524287, 7, 0, 458753, 0, 0, 458766, 8, 0, 458767, 7, 0, 589819, 8, 0, 589820, 5, 0, 589823, 8, 0, 524288, 7, 0, 524289, 0, 0, 524303, 0, 0, 655356, 0, 0, 589824, 8, 0, 589825, 4, 0, 589839, 0, 0, 720891, 6, 0, 720892, 4, 0, 655375, 0, 0, 786426, 6, 0, 786427, 9, 0, 720911, 0, 0, 851962, 8, 0, 851963, 7, 0, 786437, 9, 0, 786438, 8, 0, 786447, 0, 0, 917499, 8, 0, 917500, 7, 0, 851973, 7, 0, 851974, 6, 0, 851978, 6, 0, 851979, 1, 0, 851980, 1, 0, 851981, 1, 0, 851982, 1, 0, 851983, 4, 0, 983036, 8, 0, 983037, 7, 0, 917513, 6, 0, 917514, 9, 0, 1048573, 8, 0, 1048574, 7, 0, 983048, 6, 0, 983049, 9, 0, 1114110, 0, 0, 1048583, 6, 0, 1048584, 9, 0, 1179646, 0, 0, 1114113, 3, 0, 1114114, 1, 0, 1114115, 7, 0, 1114118, 6, 0, 1114119, 9, 0, 1245182, 0, 0, 1179649, 8, 0, 1179650, 7, 0, 1179651, 8, 0, 1179652, 7, 0, 1179654, 0, 0, 1310718, 2, 0, 1310719, 1, 0, 1245184, 5, 0, 1245186, 8, 0, 1245187, 7, 0, 1245188, 8, 0, 1245189, 7, 0, 1245190, 0, 0, 1310720, 0, 0, 1310723, 8, 0, 1310724, 7, 0, 1310725, 8, 0, 1310726, 9, 0, 1376256, 8, 0, 1376257, 7, 0, 1376260, 0, 0, 1441793, 8, 0, 1441794, 7, 0, 1441795, 6, 0, 1441796, 9, 0, 1507330, 8, 0, 1507331, 9, 0 )

[node name="GameController" parent="LevelComponents" index="8"]
next_scene = "res://scenes/world-4/level4-10.tscn"
world = 4

[node name="UnstopableEnemyP" parent="LevelComponents" instance=ExtResource( 3 )]
position = Vector2( 950, -10 )
init_vel = Vector2( 250, 250 )

[node name="BlackholeEnemyN" parent="LevelComponents" instance=ExtResource( 4 )]
position = Vector2( 770, 1660 )

[node name="StrongEnemyN" parent="LevelComponents" instance=ExtResource( 5 )]
position = Vector2( -440, 900 )
rotation = 0.785397

[node name="StrongEnemyP" parent="LevelComponents" instance=ExtResource( 6 )]
position = Vector2( 1810, 1280 )
rotation = 0.785397

[node name="UnstopableEnemyP2" parent="LevelComponents" instance=ExtResource( 3 )]
position = Vector2( -130, 1300 )
rotation = 0.785397
init_vel = Vector2( -250, 250 )

[node name="BlockEnemyN2" parent="." instance=ExtResource( 7 )]
position = Vector2( 1490, 1140 )
rotation = 0.785397

[node name="BlockEnemyN3" parent="." instance=ExtResource( 7 )]
position = Vector2( 780, 890 )
rotation = 0.785397

[node name="UnstopableEnemyN" parent="." instance=ExtResource( 8 )]
position = Vector2( 1816, 1570 )
rotation = 0.785397

[node name="UnstopableEnemyN2" parent="." instance=ExtResource( 8 )]
position = Vector2( 680, 2400 )
rotation = 0.785397
init_vel = Vector2( -250, 250 )

[node name="SimpleEnemyN" parent="." instance=ExtResource( 9 )]
position = Vector2( 1000, 1090 )
rotation = 0.785397

[node name="SimpleEnemyN2" parent="." instance=ExtResource( 9 )]
position = Vector2( 150, 1850 )
rotation = 0.785397

[node name="SimpleEnemyN4" parent="." instance=ExtResource( 9 )]
position = Vector2( -20, 2350 )
rotation = 0.785397

[node name="StrongEnemyP" parent="." instance=ExtResource( 6 )]
position = Vector2( -99.9999, 2000 )
rotation = 0.785397

[node name="StrongEnemyP2" parent="." instance=ExtResource( 6 )]
position = Vector2( 400, 2840 )
rotation = 0.785397

[node name="SimpleEnemyP" parent="." instance=ExtResource( 10 )]
position = Vector2( 560, 520 )
rotation = 0.785397

[node name="StrongEnemyN" parent="." instance=ExtResource( 5 )]
position = Vector2( 1310, -150 )

[node name="SimpleEnemyP3" parent="." instance=ExtResource( 10 )]
position = Vector2( 380, 2650 )

[node name="SimpleEnemyP2" parent="." instance=ExtResource( 10 )]
position = Vector2( -520, 1560 )

[node name="BlackholeEnemyP" parent="." instance=ExtResource( 11 )]
position = Vector2( 20, 980 )

[node name="SimpleEnemyN3" parent="." instance=ExtResource( 9 )]
position = Vector2( 1110, -240 )

[editable path="LevelComponents"]

[editable path="LevelComponents/Portal"]
