[gd_scene load_steps=3 format=2]

[ext_resource path="res://scenes/agents/BlackholeEnemyN.tscn" type="PackedScene" id=1]
[ext_resource path="res://sprites/agents/Agent3P.png" type="Texture" id=2]

[node name="BlackholeEnemyP" instance=ExtResource( 1 )]
charge = 1

[node name="Sprite" parent="CollisionShape2D" index="0"]
modulate = Color( 0.329412, 0.329412, 0.027451, 1 )
texture = ExtResource( 2 )

[node name="Sprite2" parent="Aura/CollisionShape2D" index="0"]
modulate = Color( 0.729412, 0.729412, 0.0431373, 1 )
