[gd_scene load_steps=4 format=2]

[ext_resource path="res://scripts/record-input.gd" type="Script" id=1]
[ext_resource path="res://sprites/UI/MenuBox.png" type="Texture" id=2]
[ext_resource path="res://fonts/title-font.tres" type="DynamicFont" id=3]

[node name="RecordInput" type="Control"]
pause_mode = 2
modulate = Color( 0, 1, 1, 1 )
anchor_right = 1.0
anchor_bottom = 1.0
script = ExtResource( 1 )

[node name="NinePatchRect" type="NinePatchRect" parent="."]
anchor_top = 0.5
anchor_right = 1.0
anchor_bottom = 0.5
margin_top = -46.5
margin_bottom = 46.5
rect_min_size = Vector2( 0, 300 )
texture = ExtResource( 2 )
region_rect = Rect2( 80, 32, 100, 192 )
patch_margin_top = 46
patch_margin_bottom = 47

[node name="CenterContainer" type="CenterContainer" parent="NinePatchRect"]
anchor_right = 1.0
anchor_bottom = 1.0

[node name="HBoxContainer" type="HBoxContainer" parent="NinePatchRect/CenterContainer"]
margin_left = 709.0
margin_top = 112.0
margin_right = 1211.0
margin_bottom = 187.0
custom_constants/separation = 100

[node name="Label" type="Label" parent="NinePatchRect/CenterContainer/HBoxContainer"]
margin_top = 5.0
margin_right = 164.0
margin_bottom = 70.0
custom_fonts/font = ExtResource( 3 )
text = "--:--.--"
align = 1

[node name="LineEdit" type="LineEdit" parent="NinePatchRect/CenterContainer/HBoxContainer"]
margin_left = 264.0
margin_right = 502.0
margin_bottom = 75.0
rect_min_size = Vector2( 216, 0 )
custom_fonts/font = ExtResource( 3 )
align = 1
max_length = 3
context_menu_enabled = false
caret_blink = true
[connection signal="text_changed" from="NinePatchRect/CenterContainer/HBoxContainer/LineEdit" to="." method="_on_LineEdit_text_changed"]
[connection signal="text_entered" from="NinePatchRect/CenterContainer/HBoxContainer/LineEdit" to="." method="_on_LineEdit_text_entered"]
