[gd_resource type="ShaderMaterial" load_steps=2 format=2]

[ext_resource path="res://shaders/pulsing-neon.shader" type="Shader" id=1]

[resource]
shader = ExtResource( 1 )
shader_param/PixelSize = 0.001
shader_param/Steps = 10
shader_param/Sigma = 0.044
shader_param/Speed = 1.5
shader_param/BlurRange = 256.0
shader_param/ArcsNumber = 26
