[gd_resource type="ShaderMaterial" load_steps=2 format=2]

[ext_resource path="res://shaders/world-3.shader" type="Shader" id=1]

[resource]
shader = ExtResource( 1 )
shader_param/level = 6.0
shader_param/seed = Vector2( -0.794084, 0.136444 )
shader_param/scale = 0.25
shader_param/position = Vector2( 1, 1 )
